0000000040000004001400/06/090000000000204459.000041595.000091835.000022732.000000000.000000000.000000000.000000000.0014000400020.9480          4854100000000.0000000000.0000000000.00000000000001
0000000041000004101400/06/090000000000005869.000001886.000002710.000005993.000000000.000000000.000000000.000000000.0014000400000.2200          4854100000000.0000000000.0000000000.00000000000001
0000000043000004301400/06/090000000000009779.000004217.000007664.000003604.000000000.000000000.000000000.000000000.0014000400001.1720          4854100000000.0000000000.0000000000.00000000000002
0000000045000004501400/06/090000000000004780.000000833.000000602.000005108.000000000.000000000.000000000.000000000.0014000400000.2700          4854100000000.0000000000.0000000000.00000000000001
0000000048000004801400/06/090000000000000898.000000689.000001290.000000839.000000000.000000000.000000000.000000000.0014000400000.4900          4854100000000.0000000000.0000000000.00000000000001
0000000052000005201400/06/090000000000000631.000000214.000000414.000000658.000000000.000000000.000000000.000000000.0014000400000.0100          4854100000000.0000000000.0000000000.00000000000001
0000000053000005301400/06/090000000000000064.000000025.000000044.000000033.000000000.000000000.000000000.000000000.0014000400000.0100          4854100000000.0000000000.0000000000.00000000000001
0000000054000005401400/06/090000000000000054.000000021.000000041.000000014.000000000.000000000.000000000.000000000.0014000400000.0100          4854100000000.0000000000.0000000000.00000000000001
0000000058000005801400/06/090000000000000474.000000153.000000291.000000993.000000000.000000000.000000000.000000000.0014000400000.1400          4854100000000.0000000000.0000000000.00000000000001
0000001060000106001400/06/090000000000001305.000001669.000003130.000003688.000000000.000000000.000000000.000000000.0014000400000.1800          4854100000000.0000000000.0000000000.00000000000001
0000001061000106101400/06/090000000000000862.000000805.000001523.000003652.000000000.000000000.000000000.000000000.0014000400000.0600          4854100000000.0000000000.0000000000.00000000000001
0000001062000106201400/06/090000000000001524.000002082.000003912.000000990.000000000.000000000.000000000.000000000.0014000400000.2200          4854100000000.0000000000.0000000000.00000000000001
0000001063000106301400/06/090000000000003058.000003521.000006764.000015769.000000000.000000000.000000000.000000000.0014000400000.3900          4854100000000.0000000000.0000000000.00000000000001
0000001064000106401400/06/090000000000000516.000000178.000000328.000000533.000000000.000000000.000000000.000000000.0014000400000.2570      12345678900000000.0000000000.0000000000.00000000000001
0000001073000107301400/06/090000000000000579.000000233.000000427.000000059.000000000.000000000.000000000.000000000.0014000400000.1400      12345678900000000.0000000000.0000000000.00000000000001
0000001075000107501400/06/090000000000001494.000000243.000000276.000000630.000000000.000000000.000000000.000000000.0014000400000.2500          4854100000000.0000000000.0000000000.00000000000001
0000001077000107701400/06/090000000000005578.000004050.000007539.000004232.000000000.000000000.000000000.000000000.0014000400000.5800          4854100000000.0000000000.0000000000.00000000000001
0000001078000107801400/06/090000000000001144.000001710.000003234.000006653.000000000.000000000.000000000.000000000.0014000400000.0300          4854100000000.0000000000.0000000000.00000000000001
0000001079000107901400/06/090000000000036793.000010840.000018581.000000000.000000000.000000000.000000000.000000000.0014000400001.9000          4854100000000.0000000000.0000000000.00000000000001
0000001080000108001400/06/090000000000001123.000000759.000001467.000002895.000000000.000000000.000000000.000000000.0014000400000.1700          4854100000000.0000000000.0000000000.00000000000001
0000001081000108101400/06/090000000000000163.000000210.000000388.000000038.000000000.000000000.000000000.000000000.0014000400000.0100          4854100000000.0000000000.0000000000.00000000000001
0000001082000108201400/06/090000000000000778.000000682.000001298.000000066.000000000.000000000.000000000.000000000.0014000400000.1100          4854100000000.0000000000.0000000000.00000000000001
0000001083000108301400/06/090000000000000640.000000599.000001151.000001614.000000000.000000000.000000000.000000000.0014000400000.1000          4854100000000.0000000000.0000000000.00000000000001
0000001084000108401400/06/090000000000007108.000002256.000004446.000004266.000000000.000000000.000000000.000000000.0014000400003.2330          4854100000000.0000000000.0000000000.00000000000001
0000001085000108501400/06/090000000000000505.000000474.000000905.000002043.000000000.000000000.000000000.000000000.0014000400000.0600          4854100000000.0000000000.0000000000.00000000000001
0000001086000108601400/06/090000000000001664.000001155.000002228.000000806.000000000.000000000.000000000.000000000.0014000400000.1600          4854100000000.0000000000.0000000000.00000000000001
0000001087000108701400/06/090000000000001828.000000577.000001137.000001279.000000000.000000000.000000000.000000000.0014000400000.0000          4854100000000.0000000000.0000000000.00000000000001
0000001089000108901400/06/090000000000001746.000000595.000001115.000002388.000000000.000000000.000000000.000000000.0014000400000.5900          4854100000000.0000000000.0000000000.00000000000001
0000001090000109001400/06/090000000000000318.000000119.000000172.000000136.000000000.000000000.000000000.000000000.0014000400000.0510          4854100000000.0000000000.0000000000.00000000000001
0000001091000109101400/06/090000000000001814.000000622.000001332.000000000.000000000.000000000.000000000.000000000.0014000400000.0000          4854100000000.0000000000.0000000000.00000000000001
0000001092000109201400/06/090000000000000006.000000007.000000001.000000000.000000000.000000000.000000000.000000000.0014000400000.4400          4854100000000.0000000000.0000000000.00000000000001
0000001097000109701400/06/090000000000001225.000000372.000000439.000000085.000000000.000000000.000000000.000000000.0014000400000.7400          4854100000000.0000000000.0000000000.00000000000001
0000001099000109901400/06/090000000000000749.000000431.000000825.000000996.000000000.000000000.000000000.000000000.0014000400000.2500     196694541100000000.0000000000.0000000000.00000000000001
0000001100000110001400/06/090000000000000008.960000003.250000004.650000026.220000000.000000000.000000000.000000000.0014000400000.0030          4854100000000.0000000000.0000000000.00000000000003
0000001101000110101400/06/090000000000016065.000003768.000008631.000019370.000000000.000000000.000000000.000000000.0014000400008.9190     484163448100000000.0000000000.0000000000.00000000000001
0000001102000110201400/06/090000000000000005.000000002.000000001.000000003.000000000.000000000.000000000.000000000.0014000400000.0790          4854100000057.0000000057.0000000057.00000000000001
0000001103000110301400/06/090000000000047302.000001640.000003455.000042777.000000000.000000000.000000000.000000000.0014000400029.3720     485145141800000000.0000000000.0000000000.00000000000001
0000001104000110401400/06/090000000000000011.000000010.000000017.000000017.000000000.000000000.000000000.000000000.0014000400000.0070          4854100000063.0000000063.0000000062.00000000000001
0000001105000110501400/06/090000000000078219.000014890.000038068.000064584.000000000.000000000.000000000.000000000.0014000400008.5540          4854100000000.0000000000.0000000000.00000000000001
