0000000039000003901397/08/280000000000000204791000009599600001803140000032030000000000000000000000000000000000000000013970700025.9900          48541
0000000040000004001397/08/280000000000000130009000002419600000554200000017782000000000000000000000000000000000000000013970700012.8990          48541
0000000041000004101397/08/280000000000000004655000000135700000018730000005051000000000000000000000000000000000000000013970700000.1800          48541
0000000043000004301397/08/280000000000000002218000000097500000017210000001080000000000000000000000000000000000000000013970700001.1620          48541
0000000044000004401397/08/280000000000000000032000000000900000000190000000103000000000000000000000000000000000000000013970700000.0110          48541
0000000045000004501397/08/280000000000000003685000000070100000004450000004447000000000000000000000000000000000000000013970700000.4000          48541
0000000048000004801397/08/280000000000000000235000000034400000006360000000585000000000000000000000000000000000000000013970700000.3500          48541
0000000052000005201397/08/280000000000000000492000000016800000003210000000522000000000000000000000000000000000000000013970700000.0400          48541
0000000053000005301397/08/280000000000000000032000000001200000000220000000012000000000000000000000000000000000000000013970700000.0100          48541
0000000054000005401397/08/280000000000000000045000000001800000000350000000010000000000000000000000000000000000000000013970700000.0100          48541
0000000058000005801397/08/280000000000000000242000000007900000001590000000340000000000000000000000000000000000000000013970700000.0200          48541
0000001053000105301397/08/280000000000000001250000000052300000006290000000000000000000000000000000000000000000000000013970700004.6800          48541
0000001060000106001397/08/280000000000000000560000000065000000012450000002010000000000000000000000000000000000000000013970700000.2000          48541
0000001061000106101397/08/280000000000000000448000000044400000008420000001994000000000000000000000000000000000000000013970700000.1800          48541
0000001062000106201397/08/280000000000000000632000000102700000019200000000958000000000000000000000000000000000000000013970700000.4500          48541
0000001063000106301397/08/280000000000000001389000000183100000035150000008670000000000000000000000000000000000000000013970700000.7200          48541
0000001064000106401397/08/280000000000000000045000000001400000000230000000042000000000000000000000000000000000000000013970700000.4130      123456789
0000001073000107301397/08/280000000000000000238000000010300000001940000000032000000000000000000000000000000000000000013970700000.1400      123456789
0000001075000107501397/08/280000000000000000627000000012500000001780000000243000000000000000000000000000000000000000013970700000.1940          48541
0000001077000107701397/08/280000000000000001625000000087000000016230000002334000000000000000000000000000000000000000013970700001.0600          48541
0000001078000107801397/08/280000000000000000616000000099800000018890000003883000000000000000000000000000000000000000013970700000.3300          48541
0000001079000107901397/08/280000000000000000424000000046300000008720000000276000000000000000000000000000000000000000013970700000.1400          48541
0000001080000108001397/08/280000000000000000410000000029100000005540000000953000000000000000000000000000000000000000013970700000.1400          48541
0000001081000108101397/08/280000000000000000082000000012800000002370000000038000000000000000000000000000000000000000013970700000.0400          48541
0000001082000108201397/08/280000000000000000390000000034000000006470000000052000000000000000000000000000000000000000013970700000.1700          48541
0000001083000108301397/08/280000000000000000326000000025400000004960000000293000000000000000000000000000000000000000013970700000.1500          48541
0000001084000108401397/08/280000000000000000314000000022200000004190000000383000000000000000000000000000000000000000013970700000.0900          48541
0000001085000108501397/08/280000000000000000223000000024100000004570000001009000000000000000000000000000000000000000013970700000.1100          48541
0000001086000108601397/08/280000000000000000669000000050000000009720000000426000000000000000000000000000000000000000013970700000.3000          48541
0000001087000108701397/08/280000000000000000252000000007800000001480000000218000000000000000000000000000000000000000013970700000.0000          48541
0000001089000108901397/08/280000000000000000114000000005700000001160000000143000000000000000000000000000000000000000013970700000.1000          48541
0000001090000109001397/08/280000000000000000098000000003900000000580000000068000000000000000000000000000000000000000013970700000.0718          48541
0000001091000109101397/08/280000000000000001809000000061200000013160000000000000000000000000000000000000000000000000013970700000.0000          48541
0000001093000109301397/08/280000000000000004392000000067900000014280000000000000000000000000000000000000000000000000013970700006.5800          48541
0000001094000109401397/08/280000000000000051561000000740500000244880000053117000000000000000000000000000000000000000013970700006.6020          48541
0000001095000109501397/08/280000000000000000689000000016100000002840000000188000000000000000000000000000000000000000013970700001.2910          48541
